Penguin Practice No2 – Data in the Wild, Lewis & Clark
…
In-class practice with grouping data

Your Name (replace me)

September 16, 2022

Remember: you can reference Analyze data with R.Rmd and consult Google for help with commands!

First we need to load the penguin data set, just like last week. The dataset will be called penguins This data was collected by real scientists! Data were collected and made available by Dr. Kristen Gorman and the Palmer Station, Antarctica LTER, a member of the Long Term Ecological Research Network.

library(palmerpenguins)

penguins

# A tibble: 344 × 8
   species island    bill_length_mm bill_depth_mm flipper_length_mm body_mass_g
   <fct>   <fct>              <dbl>         <dbl>             <int>       <int>
 1 Adelie  Torgersen           39.1          18.7               181        3750
 2 Adelie  Torgersen           39.5          17.4               186        3800
 3 Adelie  Torgersen           40.3          18                 195        3250
 4 Adelie  Torgersen           NA            NA                  NA          NA
 5 Adelie  Torgersen           36.7          19.3               193        3450
 6 Adelie  Torgersen           39.3          20.6               190        3650
 7 Adelie  Torgersen           38.9          17.8               181        3625
 8 Adelie  Torgersen           39.2          19.6               195        4675
 9 Adelie  Torgersen           34.1          18.1               193        3475
10 Adelie  Torgersen           42            20.2               190        4250
# ℹ 334 more rows
# ℹ 2 more variables: sex <fct>, year <int>
…
Create a vector that is the subset of the data with only penguins that live on Torgersen. How many penguins is this?

penguins <- na.omit(penguins)

torg <- filter(penguins, island == "Torgersen")
torg

# A tibble: 47 × 8
   species island    bill_length_mm bill_depth_mm flipper_length_mm body_mass_g
   <fct>   <fct>              <dbl>         <dbl>             <int>       <int>
 1 Adelie  Torgersen           39.1          18.7               181        3750
 2 Adelie  Torgersen           39.5          17.4               186        3800
 3 Adelie  Torgersen           40.3          18                 195        3250
 4 Adelie  Torgersen           36.7          19.3               193        3450
 5 Adelie  Torgersen           39.3          20.6               190        3650
 6 Adelie  Torgersen           38.9          17.8               181        3625
 7 Adelie  Torgersen           39.2          19.6               195        4675
 8 Adelie  Torgersen           41.1          17.6               182        3200
 9 Adelie  Torgersen           38.6          21.2               191        3800
10 Adelie  Torgersen           34.6          21.1               198        4400
# ℹ 37 more rows
# ℹ 2 more variables: sex <fct>, year <int>
…
6. Do the Adelie penguins living on Torgersen Island have a different mean body mass than the Adelie penguins living on Biscoe?

# one way is using filters and later calulating mass

# first create vectors that are 1. only Adelie on Torgersen and 2. only Adelie on Biscoe
adelieTorgersen <- filter(penguins, island=="Torgersen" & species=="Adelie")
adelieTorgersen

# A tibble: 47 × 8
   species island    bill_length_mm bill_depth_mm flipper_length_mm body_mass_g
   <fct>   <fct>              <dbl>         <dbl>             <int>       <int>
 1 Adelie  Torgersen           39.1          18.7               181        3750
 2 Adelie  Torgersen           39.5          17.4               186        3800
 3 Adelie  Torgersen           40.3          18                 195        3250
 4 Adelie  Torgersen           36.7          19.3               193        3450
 5 Adelie  Torgersen           39.3          20.6               190        3650
 6 Adelie  Torgersen           38.9          17.8               181        3625
 7 Adelie  Torgersen           39.2          19.6               195        4675
 8 Adelie  Torgersen           41.1          17.6               182        3200
 9 Adelie  Torgersen           38.6          21.2               191        3800
10 Adelie  Torgersen           34.6          21.1               198        4400
# ℹ 37 more rows
# ℹ 2 more variables: sex <fct>, year <int>

adelieBiscoe <- filter(penguins, island=="Biscoe" & species=="Adelie")
adelieBiscoe

# A tibble: 44 × 8
   species island bill_length_mm bill_depth_mm flipper_length_mm body_mass_g
   <fct>   <fct>           <dbl>         <dbl>             <int>       <int>
 1 Adelie  Biscoe           37.8          18.3               174        3400
 2 Adelie  Biscoe           37.7          18.7               180        3600
 3 Adelie  Biscoe           35.9          19.2               189        3800
 4 Adelie  Biscoe           38.2          18.1               185        3950
 5 Adelie  Biscoe           38.8          17.2               180        3800
 6 Adelie  Biscoe           35.3          18.9               187        3800
 7 Adelie  Biscoe           40.6          18.6               183        3550
 8 Adelie  Biscoe           40.5          17.9               187        3200
 9 Adelie  Biscoe           37.9          18.6               172        3150
10 Adelie  Biscoe           40.5          18.9               180        3950
# ℹ 34 more rows
# ℹ 2 more variables: sex <fct>, year <int>
…
<<<<<<< HEAD 7. Do the female Adelie penguins living on Torgersen Island have a different mean body mass than the female Adelie penguins living on Biscoe?

======= 7. Do the female Adelie penguins living on Torgersen Island have a different mean body mass than the female Adelie penguins living on Biscoe? Calculate both the mean and standard deviation of body mass for both groups. >>>>>>> e2faa9369ecdc2ff60edca8e1e6e7cd23f2bb477

# one way is using filters and later calulating mass

# first create vectors that are 1. only Adelie on Torgersen and 2. only Adelie on Biscoe
adelieTorgersenF <- filter(penguins, island=="Torgersen" & species=="Adelie" & sex=="female")
adelieTorgersenF

# A tibble: 24 × 8
   species island    bill_length_mm bill_depth_mm flipper_length_mm body_mass_g
   <fct>   <fct>              <dbl>         <dbl>             <int>       <int>
 1 Adelie  Torgersen           39.5          17.4               186        3800
 2 Adelie  Torgersen           40.3          18                 195        3250
 3 Adelie  Torgersen           36.7          19.3               193        3450
 4 Adelie  Torgersen           38.9          17.8               181        3625
 5 Adelie  Torgersen           41.1          17.6               182        3200
 6 Adelie  Torgersen           36.6          17.8               185        3700
 7 Adelie  Torgersen           38.7          19                 195        3450
 8 Adelie  Torgersen           34.4          18.4               184        3325
 9 Adelie  Torgersen           35.9          16.6               190        3050
10 Adelie  Torgersen           33.5          19                 190        3600
# ℹ 14 more rows
# ℹ 2 more variables: sex <fct>, year <int>

adelieBiscoeF <- filter(penguins, island=="Biscoe" & species=="Adelie" & sex=="female")
adelieBiscoeF

# A tibble: 22 × 8
   species island bill_length_mm bill_depth_mm flipper_length_mm body_mass_g
   <fct>   <fct>           <dbl>         <dbl>             <int>       <int>
 1 Adelie  Biscoe           37.8          18.3               174        3400
 2 Adelie  Biscoe           35.9          19.2               189        3800
 3 Adelie  Biscoe           35.3          18.9               187        3800
 4 Adelie  Biscoe           40.5          17.9               187        3200
 5 Adelie  Biscoe           37.9          18.6               172        3150
 6 Adelie  Biscoe           39.6          17.7               186        3500
 7 Adelie  Biscoe           35            17.9               190        3450
 8 Adelie  Biscoe           34.5          18.1               187        2900
 9 Adelie  Biscoe           39            17.5               186        3550
10 Adelie  Biscoe           36.5          16.6               181        2850
# ℹ 12 more rows
# ℹ 2 more variables: sex <fct>, year <int>
…
