Analyzing external data set – Data in the Wild, Lewis & Clark
…
Rows: 139160 Columns: 12
── Column specification ────────────────────────────────────────────────────────
Delimiter: ","
chr  (1): station_id
dbl (11): year, day, month, running_day, hour, temp, pressure, wind_speed, w...

ℹ Use `spec()` to retrieve the full column specification for this data.
ℹ Specify the column types or set `show_col_types = FALSE` to quiet this message.

# Let's take a look at the climate data.
stationData

# A tibble: 139,160 × 12
    year   day month running_day  hour  temp pressure wind_speed wind_direction
   <dbl> <dbl> <dbl>       <dbl> <dbl> <dbl>    <dbl>      <dbl>          <dbl>
 1  2018     1     1           1     0 -29.5     629         5.1            247
 2  2018     1     1           1   300 -27.4     629.        5.8            236
 3  2018     1     1           1   600 -25.5     629.        5.5            228
 4  2018     1     1           1   900 -24.9     629.        5.8            219
 5  2018     1     1           1  1200 -25       630.        3.9            230
 6  2018     1     1           1  1500 -27.5     630.        3.4            242
 7  2018     1     1           1  1800 -30.3     630.        3.3            259
 8  2018     1     1           1  2100 -30.1     630.        3.8            243
 9  2018     2     1           2     0 -28.8     630.        5.1            238
10  2018     2     1           2   300 -26.4     630.        4.9            235
# ℹ 139,150 more rows
# ℹ 3 more variables: humidity <dbl>, delta_t <dbl>, station_id <chr>
…
Now let’s see how the same can be accomplished with select(). The first argument in the function is the data frame. Any following arguments are the columns we want to select.

select(.data, column(s))

# first argument is the data frame, then the columns
select(stationData, year)

# A tibble: 139,160 × 1
    year
   <dbl>
 1  2018
 2  2018
 3  2018
 4  2018
 5  2018
 6  2018
 7  2018
 8  2018
 9  2018
10  2018
# ℹ 139,150 more rows

# multiple columns
#select columns by name
select(stationData, year, month, temp, station_id)

# A tibble: 139,160 × 4
    year month  temp station_id
   <dbl> <dbl> <dbl> <chr>     
 1  2018     1 -29.5 ag4q3h    
 2  2018     1 -27.4 ag4q3h    
 3  2018     1 -25.5 ag4q3h    
 4  2018     1 -24.9 ag4q3h    
 5  2018     1 -25   ag4q3h    
 6  2018     1 -27.5 ag4q3h    
 7  2018     1 -30.3 ag4q3h    
 8  2018     1 -30.1 ag4q3h    
 9  2018     1 -28.8 ag4q3h    
10  2018     1 -26.4 ag4q3h    
# ℹ 139,150 more rows

# select adjacent columns
select(stationData, year:hour)

# A tibble: 139,160 × 5
    year   day month running_day  hour
   <dbl> <dbl> <dbl>       <dbl> <dbl>
 1  2018     1     1           1     0
 2  2018     1     1           1   300
 3  2018     1     1           1   600
 4  2018     1     1           1   900
 5  2018     1     1           1  1200
 6  2018     1     1           1  1500
 7  2018     1     1           1  1800
 8  2018     1     1           1  2100
 9  2018     2     1           2     0
10  2018     2     1           2   300
# ℹ 139,150 more rows

# ignore columns (everything but)
select(stationData, -humidity)

# A tibble: 139,160 × 11
    year   day month running_day  hour  temp pressure wind_speed wind_direction
   <dbl> <dbl> <dbl>       <dbl> <dbl> <dbl>    <dbl>      <dbl>          <dbl>
 1  2018     1     1           1     0 -29.5     629         5.1            247
 2  2018     1     1           1   300 -27.4     629.        5.8            236
 3  2018     1     1           1   600 -25.5     629.        5.5            228
 4  2018     1     1           1   900 -24.9     629.        5.8            219
 5  2018     1     1           1  1200 -25       630.        3.9            230
 6  2018     1     1           1  1500 -27.5     630.        3.4            242
 7  2018     1     1           1  1800 -30.3     630.        3.3            259
 8  2018     1     1           1  2100 -30.1     630.        3.8            243
 9  2018     2     1           2     0 -28.8     630.        5.1            238
10  2018     2     1           2   300 -26.4     630.        4.9            235
# ℹ 139,150 more rows
# ℹ 2 more variables: delta_t <dbl>, station_id <chr>

Notice that unlike using $, using select() returns a formatted data frame. With larger data sets, this becomes especially useful.

Let’s practice!

Write a line of code to select the following columns from the stationData: temp, wind_speed, humidity . Then, select everything but the wind_direction column.

#select
select(stationData, temp, wind_speed, humidity)

# A tibble: 139,160 × 3
    temp wind_speed humidity
   <dbl>      <dbl>    <dbl>
 1 -29.5        5.1     60.9
 2 -27.4        5.8     62  
 3 -25.5        5.5     64  
 4 -24.9        5.8     63  
 5 -25          3.9     61  
 6 -27.5        3.4     64  
 7 -30.3        3.3     64  
 8 -30.1        3.8     66.6
 9 -28.8        5.1     62  
10 -26.4        4.9     64  
# ℹ 139,150 more rows

#select
select(stationData, -wind_direction)

# A tibble: 139,160 × 11
    year   day month running_day  hour  temp pressure wind_speed humidity
   <dbl> <dbl> <dbl>       <dbl> <dbl> <dbl>    <dbl>      <dbl>    <dbl>
 1  2018     1     1           1     0 -29.5     629         5.1     60.9
 2  2018     1     1           1   300 -27.4     629.        5.8     62  
 3  2018     1     1           1   600 -25.5     629.        5.5     64  
 4  2018     1     1           1   900 -24.9     629.        5.8     63  
 5  2018     1     1           1  1200 -25       630.        3.9     61  
 6  2018     1     1           1  1500 -27.5     630.        3.4     64  
 7  2018     1     1           1  1800 -30.3     630.        3.3     64  
 8  2018     1     1           1  2100 -30.1     630.        3.8     66.6
 9  2018     2     1           2     0 -28.8     630.        5.1     62  
10  2018     2     1           2   300 -26.4     630.        4.9     64  
# ℹ 139,150 more rows
# ℹ 2 more variables: delta_t <dbl>, station_id <chr>
…
Another useful function we’ll introduce here is length(). Length simply counts the number of entries in a column or vector. We can use it in combination with unique() to find how many unique values exist in a column. So, we could then answer the question: “How many stations are there?”

# get unique values of the station_id column
length(unique(stationData$station_id))

[1] 52

Now, filter the data so that it only contains one station.

# filter for a single station
filter(stationData, station_id=="ag4q3h")

# A tibble: 2,920 × 12
    year   day month running_day  hour  temp pressure wind_speed wind_direction
   <dbl> <dbl> <dbl>       <dbl> <dbl> <dbl>    <dbl>      <dbl>          <dbl>
 1  2018     1     1           1     0 -29.5     629         5.1            247
 2  2018     1     1           1   300 -27.4     629.        5.8            236
 3  2018     1     1           1   600 -25.5     629.        5.5            228
 4  2018     1     1           1   900 -24.9     629.        5.8            219
 5  2018     1     1           1  1200 -25       630.        3.9            230
 6  2018     1     1           1  1500 -27.5     630.        3.4            242
 7  2018     1     1           1  1800 -30.3     630.        3.3            259
 8  2018     1     1           1  2100 -30.1     630.        3.8            243
 9  2018     2     1           2     0 -28.8     630.        5.1            238
10  2018     2     1           2   300 -26.4     630.        4.9            235
# ℹ 2,910 more rows
# ℹ 3 more variables: humidity <dbl>, delta_t <dbl>, station_id <chr>
…
Working with the climate data, construct a small set of code that does the following:

Slims down the full data frame to one that contains the columns month, temp and station_id. Assign this to an object called slim.

Filters the data for ag4q3h with an average temperature less than -22 degrees.

Name this new data frame cold

# not piped
slim <- select(stationData, month, temp, station_id)
  
slim

# A tibble: 139,160 × 3
   month  temp station_id
   <dbl> <dbl> <chr>     
 1     1 -29.5 ag4q3h    
 2     1 -27.4 ag4q3h    
 3     1 -25.5 ag4q3h    
 4     1 -24.9 ag4q3h    
 5     1 -25   ag4q3h    
 6     1 -27.5 ag4q3h    
 7     1 -30.3 ag4q3h    
 8     1 -30.1 ag4q3h    
 9     1 -28.8 ag4q3h    
10     1 -26.4 ag4q3h    
# ℹ 139,150 more rows

cold <- filter(slim, station_id=="ag4q3h", temp < -22)

cold

# A tibble: 2,872 × 3
   month  temp station_id
   <dbl> <dbl> <chr>     
 1     1 -29.5 ag4q3h    
 2     1 -27.4 ag4q3h    
 3     1 -25.5 ag4q3h    
 4     1 -24.9 ag4q3h    
 5     1 -25   ag4q3h    
 6     1 -27.5 ag4q3h    
 7     1 -30.3 ag4q3h    
 8     1 -30.1 ag4q3h    
 9     1 -28.8 ag4q3h    
10     1 -26.4 ag4q3h    
# ℹ 2,862 more rows
…
This is helpful for a lot of reasons, including:

removing the clutter of creating a lot of intermediate objects in your work space, which reduces the chance of errors caused by using the wrong input object

makes things more human-readable (in addition to computer-readable)

Now, let’s try the same as above, but using the pipe:

#with pipe
stationData %>% 
  select(temp, station_id, month) %>% 
  filter(station_id=="ag4q3h", temp < -22)

# A tibble: 2,872 × 3
    temp station_id month
   <dbl> <chr>      <dbl>
 1 -29.5 ag4q3h         1
 2 -27.4 ag4q3h         1
 3 -25.5 ag4q3h         1
 4 -24.9 ag4q3h         1
 5 -25   ag4q3h         1
 6 -27.5 ag4q3h         1
 7 -30.3 ag4q3h         1
 8 -30.1 ag4q3h         1
 9 -28.8 ag4q3h         1
10 -26.4 ag4q3h         1
# ℹ 2,862 more rows
Let’s practice!

In small groups, use pipes to create a new data frame called singleStation that includes the following:

the columns day, temp, station_id

only rows with temperatures that are greater than -20 degrees

singleStation <- stationData %>% 
  select(day, temp , station_id) %>% 
  filter(temp > -20)

singleStation

# A tibble: 52,736 × 3
     day  temp station_id
   <dbl> <dbl> <chr>     
 1   356 -18.4 ag4q3h    
 2   356 -17.7 ag4q3h    
 3   356 -18.4 ag4q3h    
 4   356 -19.8 ag4q3h    
 5   357 -19.2 ag4q3h    
 6   357 -18.7 ag4q3h    
 7   357 -18.6 ag4q3h    
 8   357 -19.6 ag4q3h    
 9   358 -18.5 ag4q3h    
10   358 -18.8 ag4q3h    
# ℹ 52,726 more rows

Creating new variables with mutate()

Sometimes our data aren’t in exactly the format we want. For example, we might want our temperature data in Fahrenheit instead of Celsius.

The tidyverse has a function called mutate() that lets us create a new column. Often, we want to apply a function to the entire column or perform some type of calculation, such as converting temp from F to C.

To help us out, here is the equation for converting: Fahrenheit = Celcius * (9/5) + 32

# create a new column for temps in Fahrenheit
mutate(stationData, temp_f = temp * (9/5)+32)

# A tibble: 139,160 × 13
    year   day month running_day  hour  temp pressure wind_speed wind_direction
   <dbl> <dbl> <dbl>       <dbl> <dbl> <dbl>    <dbl>      <dbl>          <dbl>
 1  2018     1     1           1     0 -29.5     629         5.1            247
 2  2018     1     1           1   300 -27.4     629.        5.8            236
 3  2018     1     1           1   600 -25.5     629.        5.5            228
 4  2018     1     1           1   900 -24.9     629.        5.8            219
 5  2018     1     1           1  1200 -25       630.        3.9            230
 6  2018     1     1           1  1500 -27.5     630.        3.4            242
 7  2018     1     1           1  1800 -30.3     630.        3.3            259
 8  2018     1     1           1  2100 -30.1     630.        3.8            243
 9  2018     2     1           2     0 -28.8     630.        5.1            238
10  2018     2     1           2   300 -26.4     630.        4.9            235
# ℹ 139,150 more rows
# ℹ 4 more variables: humidity <dbl>, delta_t <dbl>, station_id <chr>,
#   temp_f <dbl>
…
Grouping data by variable values gives us a clearer picture of specific subsets of the data. For instance, we might like to know the average measurements for specific locations.

The group_by() function lets us do this. It is most often used in combination with summarize().

We can use this method to calculate the mean temperatures of each station_id instead of the overall mean of the entire data set.

Next, use arrange() function, which can rearrange our data in numerical order by a specific column. For instance, we could use it with the code below to find the stations with the highest and lowest average temperatures.

#group_by summarize arrange
stationData %>% 
  group_by(station_id) %>% 
  summarize(mean_temp=mean(temp, na.rm=TRUE)) %>% 
  arrange(mean_temp)

# A tibble: 52 × 2
   station_id mean_temp
   <chr>          <dbl>
 1 fujq3h         -52.6
 2 dc2q3h         -51.7
 3 ag4q3h         -51.0
 4 jasq3h         -49.8
 5 rlsq3h         -44.6
 6 d85q3h         -40.5
 7 balq3h         -36.8
 8 pdaq3h         -35.8
 9 mizq3h         -29.8
10 kmsq3h         -29.3
# ℹ 42 more rows

One great thing about group_by() is that you can give it multiple columns. This allows us to have groups within groups. For instance, we could organize our data by station_id and then break up data for each station by month. That’s a mouthful, so let’s just take a look at it:

#group_by multiple columns
stationData %>% 
  group_by(station_id, month) %>% 
  summarize(mean_temp=mean(temp, na.rm=TRUE))

`summarise()` has grouped output by 'station_id'. You can override using the
`.groups` argument.

# A tibble: 571 × 3
# Groups:   station_id [52]
   station_id month mean_temp
   <chr>      <dbl>     <dbl>
 1 ag4q3h         1     -31.4
 2 ag4q3h         2     -43.0
 3 ag4q3h         3     -54.9
 4 ag4q3h         4     -60.7
 5 ag4q3h         5     -57.1
 6 ag4q3h         6     -58.6
 7 ag4q3h         7     -60.9
 8 ag4q3h         8     -61.2
 9 ag4q3h         9     -63.6
10 ag4q3h        10     -51.8
# ℹ 561 more rows
…
