Variables, functions, loading data – Data in the Wild, Lewis & Clark
…
Rows: 75 Columns: 12
── Column specification ────────────────────────────────────────────────────────
Delimiter: ","
chr (7): Timestamp, school, swim, animals, parkaColor, teamFlag, distance
dbl (5): fishing, cold, remote, bedsideManner, cooking

ℹ Use `spec()` to retrieve the full column specification for this data.
ℹ Specify the column types or set `show_col_types = FALSE` to quiet this message.

#print to screen
teamAntarcticaData

# A tibble: 75 × 12
   Timestamp       school fishing swim   cold animals remote parkaColor teamFlag
   <chr>           <chr>    <dbl> <chr> <dbl> <chr>    <dbl> <chr>      <chr>   
 1 8/30/2022 16:0… Unive…       1 Yes       4 Yes          4 Gold       Penguin 
 2 8/30/2022 16:0… Unive…       2 Yes       4 Yes          5 Blue       Bear    
 3 8/30/2022 16:0… Unive…       2 Yes       4 Yes          3 Green      Penguin 
 4 8/30/2022 16:0… Unive…       1 Yes       1 Yes          1 Blue       Seal    
 5 8/30/2022 16:0… Unive…       1 Yes       3 Yes          3 White      Sea Spi…
 6 8/30/2022 16:0… Unive…       1 Yes       3 Yes          3 hot pink   Penguin 
 7 8/30/2022 16:0… Unive…       1 Yes       2 Yes          3 Blue       Sea Spi…
 8 8/30/2022 16:0… Unive…       2 Yes       2 Yes          4 Blue       Penguin 
 9 8/30/2022 16:0… Unive…       2 Yes       2 Yes          5 White      Bear    
10 8/30/2022 16:0… Unive…       5 Yes       5 Yes          5 Blue       Penguin 
# ℹ 65 more rows
# ℹ 3 more variables: distance <chr>, bedsideManner <dbl>, cooking <dbl>
…
